<html><body><p>{"current_page":1,
"data":[{"id":953,"code":"CL265","prenom":null,"name":"DBACH","matriculeFiscale":"CIN 06191781","adresse":"Kssar Hellal","delegation":"Ksar Hellal","tel":"28175851","email":"ela2ajri@gmail.com","actif":"1","api_token":null,"frais_liv":"8.000","frais_retour":"1.000","created_at":"2024-01-02T10:46:33.000000Z","updated_at":"2024-01-02T11:42:50.000000Z","gouvernorat_id":17,"accepteCheque":1,"utilisateur":[],"gouvernorat":{"id":17,"nom":"Monastir","created_at":"2022-11-09T09:39:37.000000Z","updated_at":"2022-11-09T09:39:37.000000Z"}}
,{"id":952,"code":"CL167","prenom":null,"name":"First Bio","matriculeFiscale":"CIN : 07429236","adresse":"manouba","delegation":"Oued Ellil","tel":"56136001","email":"akroutikhaled440@gmail.com","actif":"1","api_token":null,"frais_liv":"6.500","frais_retour":"0.000","created_at":"2024-01-02T10:26:58.000000Z","updated_at":"2024-01-02T10:26:58.000000Z","gouvernorat_id":11,"accepteCheque":0,"utilisateur":[],"gouvernorat":{"id":11,"nom":"Manouba","created_at":"2022-11-09T09:39:37.000000Z","updated_at":"2022-11-09T09:39:37.000000Z"}}
,{"id":951,"code":"CL671","prenom":null,"name":"ma fripe chic chez achouri","matriculeFiscale":"MF : 1533073 N\/N\/C\/000","adresse":"sidi hssin","delegation":"Sidi Hassine","tel":"54485526","email":"bnjmerci80@gmail.com","actif":"1","api_token":null,"frais_liv":"8.000","frais_retour":"3.000","created_at":"2024-01-02T10:15:26.000000Z","updated_at":"2024-01-02T10:15:26.000000Z","gouvernorat_id":4,"accepteCheque":0,"utilisateur":[],"gouvernorat":{"id":4,"nom":"Tunis","created_at":"2022-11-09T09:39:36.000000Z","updated_at":"2022-11-09T09:39:36.000000Z"}}
,{"id":950,"code":"CL887","prenom":null,"name":"Tic-Tac Shop","matriculeFiscale":"CIN : 14351076","adresse":"Menzel bouzelfa pr\u00e8s de lyc\u00e9e libre","delegation":"Menzel Bouzelfa","tel":"52439912","email":"atefwertani@gmail.com","actif":"1","api_token":null,"frais_liv":"7.500","frais_retour":"2.500","created_at":"2024-01-02T10:14:30.000000Z","updated_at":"2024-01-02T13:52:36.000000Z","gouvernorat_id":1,"accepteCheque":0,"utilisateur":[],"gouvernorat":{"id":1,"nom":"Nabeul","created_at":"2022-11-09T09:39:36.000000Z","updated_at":"2022-11-09T09:39:36.000000Z"}}
,{"id":949,"code":"CL771","prenom":null,"name":"Assal Jawad","matriculeFiscale":"CIN 06899266","adresse":"Metlaoui","delegation":"M\u00e9tlaoui","tel":"52718533","email":"Chaabanitakwa7@gmail.com","actif":"1","api_token":null,"frais_liv":"8.000","frais_retour":"8.000","created_at":"2024-01-02T09:23:56.000000Z","updated_at":"2024-01-02T09:23:56.000000Z","gouvernorat_id":2,"accepteCheque":1,"utilisateur":[],"gouvernorat":{"id":2,"nom":"Gafsa","created_at":"2022-11-09T09:39:36.000000Z","updated_at":"2022-11-09T09:39:36.000000Z"}}
,{"id":948,"code":"CL240","prenom":null,"name":"NATPHYTO BNK","matriculeFiscale":"000-M-A-1685931\/Z","adresse":"B\u00e9ni khiar","delegation":"B\u00e9ni Khiar","tel":"98308569","email":"contact@natphyto.com","actif":"1","api_token":null,"frais_liv":"7.000","frais_retour":"1.000","created_at":"2024-01-01T10:24:05.000000Z","updated_at":"2024-01-01T10:30:37.000000Z","gouvernorat_id":1,"accepteCheque":1,"utilisateur":[],"gouvernorat":{"id":1,"nom":"Nabeul","created_at":"2022-11-09T09:39:36.000000Z","updated_at":"2022-11-09T09:39:36.000000Z"}}
,{"id":947,"code":"CL448","prenom":null,"name":"Qualit\u00e9 Queen","matriculeFiscale":"1321849\/N","adresse":"msaken","delegation":"M'saken","tel":"22694732","email":"Jmagb13@gmail.com","actif":"1","api_token":null,"frais_liv":"7.500","frais_retour":"2.000","created_at":"2023-12-29T13:28:49.000000Z","updated_at":"2023-12-29T13:28:49.000000Z","gouvernorat_id":23,"accepteCheque":0,"utilisateur":[],"gouvernorat":{"id":23,"nom":"Sousse","created_at":"2022-11-09T09:39:37.000000Z","updated_at":"2022-11-09T09:39:37.000000Z"}},{"id":946,"code":"CL261","prenom":null,"name":"INZO STORE","matriculeFiscale":"00000000","adresse":"moknine","delegation":"Moknine","tel":"24297311","email":"chebil.anouar@gmail.com","actif":"1","api_token":null,"frais_liv":"8.000","frais_retour":"3.000","created_at":"2023-12-29T10:51:19.000000Z","updated_at":"2024-01-02T09:43:47.000000Z","gouvernorat_id":17,"accepteCheque":0,"utilisateur":[],"gouvernorat":{"id":17,"nom":"Monastir","created_at":"2022-11-09T09:39:37.000000Z","updated_at":"2022-11-09T09:39:37.000000Z"}},{"id":945,"code":"CL344","prenom":null,"name":"maxtec djerba","matriculeFiscale":"MF : 0985808 J","adresse":"sfax ville","delegation":"Djerba - Houmt Souk","tel":"98140576","email":"haythem@maxtec.com.tn","actif":"1","api_token":null,"frais_liv":"0.000","frais_retour":"0.000","created_at":"2023-12-28T15:58:55.000000Z","updated_at":"2023-12-28T15:58:55.000000Z","gouvernorat_id":21,"accepteCheque":1,"utilisateur":[],"gouvernorat":{"id":21,"nom":"Medenine","created_at":"2022-11-09T09:39:37.000000Z","updated_at":"2022-11-09T09:39:37.000000Z"}},{"id":944,"code":"CL11","prenom":null,"name":"maxtec el ghazela","matriculeFiscale":"MF : 0985808 J","adresse":"el ghazela","delegation":"Ariana Ville","tel":"94684284","email":"finance@maxtec.com.tn","actif":"1","api_token":null,"frais_liv":"0.000","frais_retour":"0.000","created_at":"2023-12-28T15:53:19.000000Z","updated_at":"2023-12-28T15:53:19.000000Z","gouvernorat_id":15,"accepteCheque":1,"utilisateur":[],"gouvernorat":{"id":15,"nom":"Ariana","created_at":"2022-11-09T09:39:37.000000Z","updated_at":"2022-11-09T09:39:37.000000Z"}},{"id":943,"code":"CL134","prenom":null,"name":"Strahome","matriculeFiscale":"MF : 1825077\/Q","adresse":"Sfax Ville","delegation":"Sfax Ville","tel":"54704703","email":"Lahianie412@gmail.com","actif":"1","api_token":null,"frais_liv":"9.000","frais_retour":"3.000","created_at":"2023-12-28T13:41:34.000000Z","updated_at":"2023-12-28T13:41:34.000000Z","gouvernorat_id":3,"accepteCheque":1,"utilisateur":[],"gouvernorat":{"id":3,"nom":"Sfax","created_at":"2022-11-09T09:39:36.000000Z","updated_at":"2022-11-09T09:39:36.000000Z"}},{"id":942,"code":"CL576","prenom":null,"name":"My Story Cosmetics","matriculeFiscale":"CIN \/ 14452780","adresse":"Bejaoua","delegation":"Oued Ellil","tel":"54136898","email":"baligh22krifi@gmail.com","actif":"1","api_token":null,"frais_liv":"7.000","frais_retour":"1.000","created_at":"2023-12-28T08:45:23.000000Z","updated_at":"2023-12-30T12:26:01.000000Z","gouvernorat_id":11,"accepteCheque":0,"utilisateur":[],"gouvernorat":{"id":11,"nom":"Manouba","created_at":"2022-11-09T09:39:37.000000Z","updated_at":"2022-11-09T09:39:37.000000Z"}},{"id":941,"code":"CL474","prenom":null,"name":"Gm my dress","matriculeFiscale":"MF : 573420 \/B","adresse":"Sahloul 3","delegation":"Sousse Jawhara","tel":"26681965","email":"radwengaied@gmail.com","actif":"1","api_token":null,"frais_liv":"7.000","frais_retour":"1.000","created_at":"2023-12-27T15:56:11.000000Z","updated_at":"2023-12-27T17:12:06.000000Z","gouvernorat_id":23,"accepteCheque":0,"utilisateur":[],"gouvernorat":{"id":23,"nom":"Sousse","created_at":"2022-11-09T09:39:37.000000Z","updated_at":"2022-11-09T09:39:37.000000Z"}},{"id":940,"code":"CL842","prenom":null,"name":"STE MAYMOUN TEXTILES gros","matriculeFiscale":"MF : 1739292\/M\/B\/M","adresse":"Teboulba","delegation":"T\u00e9boulba","tel":"58637019","email":"textilem558@gmail.com","actif":"1","api_token":null,"frais_liv":"10.000","frais_retour":"0.000","created_at":"2023-12-27T15:30:12.000000Z","updated_at":"2023-12-27T17:11:21.000000Z","gouvernorat_id":17,"accepteCheque":0,"utilisateur":[],"gouvernorat":{"id":17,"nom":"Monastir","created_at":"2022-11-09T09:39:37.000000Z","updated_at":"2022-11-09T09:39:37.000000Z"}},{"id":939,"code":"CL432","prenom":null,"name":"Endless Smell","matriculeFiscale":"CIN : 14358473","adresse":"Menzah 5","delegation":"Ariana Ville","tel":"95738779","email":"eya.mtaallah@etudiant-issbat.utm.tn","actif":"1","api_token":null,"frais_liv":"8.000","frais_retour":"4.000","created_at":"2023-12-27T12:51:13.000000Z","updated_at":"2023-12-27T17:12:32.000000Z","gouvernorat_id":15,"accepteCheque":0,"utilisateur":[],"gouvernorat":{"id":15,"nom":"Ariana","created_at":"2022-11-09T09:39:37.000000Z","updated_at":"2022-11-09T09:39:37.000000Z"}},{"id":938,"code":"CL299","prenom":null,"name":"Forsa Home","matriculeFiscale":"MF: 1836919\/T","adresse":"Sahloul \u00e0 c\u00f4t\u00e9 shoes centre","delegation":"Hammam Sousse","tel":"51198138","email":"forssahome@gmail.com","actif":"1","api_token":null,"frais_liv":"8.000","frais_retour":"3.000","created_at":"2023-12-26T19:13:46.000000Z","updated_at":"2023-12-26T19:13:46.000000Z","gouvernorat_id":23,"accepteCheque":1,"utilisateur":[],"gouvernorat":{"id":23,"nom":"Sousse","created_at":"2022-11-09T09:39:37.000000Z","updated_at":"2022-11-09T09:39:37.000000Z"}},{"id":937,"code":"CL799","prenom":null,"name":"wala shop","matriculeFiscale":"MF : 1739292\/M\/B\/M","adresse":"ksour essef","delegation":"Ksour Essef","tel":"23854869","email":"walaseghaier@gmail.com","actif":"1","api_token":null,"frais_liv":"6.500","frais_retour":"0.000","created_at":"2023-12-26T14:09:58.000000Z","updated_at":"2023-12-26T14:25:30.000000Z","gouvernorat_id":18,"accepteCheque":0,"utilisateur":[],"gouvernorat":{"id":18,"nom":"Mahdia","created_at":"2022-11-09T09:39:37.000000Z","updated_at":"2022-11-09T09:39:37.000000Z"}},{"id":936,"code":"CL157","prenom":null,"name":"Julia Boutique","matriculeFiscale":"MF :  1485459\/H","adresse":"Sidi thabet","delegation":"Sidi Thabet","tel":"27754081","email":"julia-boutique@outlook.com","actif":"1","api_token":null,"frais_liv":"7.000","frais_retour":"2.000","created_at":"2023-12-26T13:52:59.000000Z","updated_at":"2023-12-27T17:13:08.000000Z","gouvernorat_id":15,"accepteCheque":0,"utilisateur":[],"gouvernorat":{"id":15,"nom":"Ariana","created_at":"2022-11-09T09:39:37.000000Z","updated_at":"2022-11-09T09:39:37.000000Z"}},{"id":935,"code":"CL320","prenom":null,"name":"modaline accessories","matriculeFiscale":"CIN : 09293449","adresse":"Rue imam ghazali kalaa kbira","delegation":"Kal\u00e2a Kebira","tel":"25 825 627","email":"modalineaccessoires@gmail.com","actif":"1","api_token":null,"frais_liv":"8.000","frais_retour":"3.000","created_at":"2023-12-26T13:03:26.000000Z","updated_at":"2023-12-26T13:03:26.000000Z","gouvernorat_id":23,"accepteCheque":0,"utilisateur":[],"gouvernorat":{"id":23,"nom":"Sousse","created_at":"2022-11-09T09:39:37.000000Z","updated_at":"2022-11-09T09:39:37.000000Z"}},{"id":934,"code":"CL693","prenom":null,"name":"Look Famille","matriculeFiscale":"Cin : 08383808","adresse":"Sfax ville","delegation":"Sfax Ville","tel":"51069988","email":"najahiramzi2@gmail.com","actif":"1","api_token":null,"frais_liv":"6.500","frais_retour":"2.000","created_at":"2023-12-26T10:30:54.000000Z","updated_at":"2023-12-27T17:14:10.000000Z","gouvernorat_id":3,"accepteCheque":0,"utilisateur":[],"gouvernorat":{"id":3,"nom":"Sfax","created_at":"2022-11-09T09:39:36.000000Z","updated_at":"2022-11-09T09:39:36.000000Z"}},{"id":933,"code":"CL940","prenom":null,"name":"Mazar Famille","matriculeFiscale":"CIN : 08383808","adresse":"Sfax ville","delegation":"Sfax Ville","tel":"24423696","email":"ramzinajahi3@gmail.com","actif":"1","api_token":null,"frais_liv":"6.500","frais_retour":"2.000","created_at":"2023-12-26T10:27:44.000000Z","updated_at":"2023-12-27T17:14:32.000000Z","gouvernorat_id":3,"accepteCheque":0,"utilisateur":[],"gouvernorat":{"id":3,"nom":"Sfax","created_at":"2022-11-09T09:39:36.000000Z","updated_at":"2022-11-09T09:39:36.000000Z"}},{"id":932,"code":"CL832","prenom":null,"name":"Pirena","matriculeFiscale":"CIN : 12816652","adresse":"Hay manzeh rond markez","delegation":"Sousse Jawhara","tel":"56661552","email":"amiraamri104@gmail.com","actif":"1","api_token":null,"frais_liv":"8.000","frais_retour":"3.000","created_at":"2023-12-25T13:28:00.000000Z","updated_at":"2023-12-25T13:28:00.000000Z","gouvernorat_id":23,"accepteCheque":0,"utilisateur":[],"gouvernorat":{"id":23,"nom":"Sousse","created_at":"2022-11-09T09:39:37.000000Z","updated_at":"2022-11-09T09:39:37.000000Z"}},{"id":931,"code":"CL59","prenom":null,"name":"the win store","matriculeFiscale":"CIN : 12917415","adresse":"Hamem sousse el ghrabi","delegation":"Hammam Sousse","tel":"28002355","email":"ferjani.mariem@icloud.com","actif":"1","api_token":null,"frais_liv":"8.000","frais_retour":"3.000","created_at":"2023-12-25T13:23:44.000000Z","updated_at":"2023-12-25T13:23:44.000000Z","gouvernorat_id":23,"accepteCheque":0,"utilisateur":[],"gouvernorat":{"id":23,"nom":"Sousse","created_at":"2022-11-09T09:39:37.000000Z","updated_at":"2022-11-09T09:39:37.000000Z"}},{"id":930,"code":"CL950","prenom":null,"name":"Illane parfum","matriculeFiscale":"Cin: 072322837","adresse":"Sahline","delegation":"Sahline","tel":"27197204","email":"samardridi230@gmail.com","actif":"1","api_token":null,"frais_liv":"8.000","frais_retour":"3.000","created_at":"2023-12-25T13:04:47.000000Z","updated_at":"2023-12-25T13:04:47.000000Z","gouvernorat_id":17,"accepteCheque":1,"utilisateur":[],"gouvernorat":{"id":17,"nom":"Monastir","created_at":"2022-11-09T09:39:37.000000Z","updated_at":"2022-11-09T09:39:37.000000Z"}},{"id":929,"code":"CL363","prenom":null,"name":"matjer al akhawat","matriculeFiscale":"cin : 09459645","adresse":"ezzahrouni","delegation":"Sidi Hassine","tel":"27171341","email":"ahlem1.kouki@glail.com","actif":"1","api_token":null,"frais_liv":"8.000","frais_retour":"3.000","created_at":"2023-12-25T11:10:48.000000Z","updated_at":"2023-12-25T11:10:48.000000Z","gouvernorat_id":4,"accepteCheque":1,"utilisateur":[],"gouvernorat":{"id":4,"nom":"Tunis","created_at":"2022-11-09T09:39:36.000000Z","updated_at":"2022-11-09T09:39:36.000000Z"}}],"first_page_url":"https:\/\/core.jax-delivery.com\/api\/clients?page=1","from":1,"last_page":39,"last_page_url":"https:\/\/core.jax-delivery.com\/api\/clients?page=39","links":[{"url":null,"label":"pagination.previous","active":false},{"url":"https:\/\/core.jax-delivery.com\/api\/clients?page=1","label":"1","active":true},{"url":"https:\/\/core.jax-delivery.com\/api\/clients?page=2","label":"2","active":false},{"url":"https:\/\/core.jax-delivery.com\/api\/clients?page=3","label":"3","active":false},{"url":"https:\/\/core.jax-delivery.com\/api\/clients?page=4","label":"4","active":false},{"url":"https:\/\/core.jax-delivery.com\/api\/clients?page=5","label":"5","active":false},{"url":"https:\/\/core.jax-delivery.com\/api\/clients?page=6","label":"6","active":false},{"url":"https:\/\/core.jax-delivery.com\/api\/clients?page=7","label":"7","active":false},{"url":"https:\/\/core.jax-delivery.com\/api\/clients?page=8","label":"8","active":false},{"url":"https:\/\/core.jax-delivery.com\/api\/clients?page=9","label":"9","active":false},{"url":"https:\/\/core.jax-delivery.com\/api\/clients?page=10","label":"10","active":false},{"url":null,"label":"...","active":false},{"url":"https:\/\/core.jax-delivery.com\/api\/clients?page=38","label":"38","active":false},{"url":"https:\/\/core.jax-delivery.com\/api\/clients?page=39","label":"39","active":false},{"url":"https:\/\/core.jax-delivery.com\/api\/clients?page=2","label":"pagination.next","active":false}],"next_page_url":"https:\/\/core.jax-delivery.com\/api\/clients?page=2","path":"https:\/\/core.jax-delivery.com\/api\/clients","per_page":25,"prev_page_url":null,"to":25,"total":952}</p></body></html>